%FSLAX43Y43*%
%MOMM*%
G71*
G01*
G75*
G04 Layer_Physical_Order=1*
G04 Layer_Color=255*
%ADD10C,0.180*%
%ADD11C,0.800*%
%ADD12R,1.350X0.400*%
%ADD13R,0.800X1.700*%
%ADD14R,1.000X0.900*%
%ADD15R,1.150X1.400*%
%ADD16R,2.450X2.450*%
%ADD17O,0.250X0.750*%
%ADD18O,0.750X0.250*%
%ADD19R,0.300X0.850*%
%ADD20R,0.850X0.300*%
%ADD21R,5.200X5.200*%
%ADD22R,0.500X0.600*%
%ADD23R,0.889X0.889*%
%ADD24R,0.600X0.550*%
%ADD25R,1.200X1.350*%
%ADD26R,1.000X0.950*%
%ADD27R,0.650X0.500*%
%ADD28R,0.762X0.762*%
%ADD29R,0.950X1.000*%
%ADD30R,0.500X0.650*%
%ADD31R,0.550X0.600*%
%ADD32C,1.700*%
%ADD33C,0.175*%
%ADD34C,0.200*%
%ADD35C,0.300*%
%ADD36C,0.500*%
%ADD37C,0.350*%
%ADD38R,1.900X1.800*%
%ADD39R,1.700X1.700*%
%ADD40C,1.700*%
%ADD41R,1.700X1.700*%
G04:AMPARAMS|DCode=42|XSize=1.05mm|YSize=1.25mm|CornerRadius=0.525mm|HoleSize=0mm|Usage=FLASHONLY|Rotation=270.000|XOffset=0mm|YOffset=0mm|HoleType=Round|Shape=RoundedRectangle|*
%AMROUNDEDRECTD42*
21,1,1.050,0.200,0,0,270.0*
21,1,0.000,1.250,0,0,270.0*
1,1,1.050,-0.100,0.000*
1,1,1.050,-0.100,0.000*
1,1,1.050,0.100,0.000*
1,1,1.050,0.100,0.000*
%
%ADD42ROUNDEDRECTD42*%
G04:AMPARAMS|DCode=43|XSize=2.1mm|YSize=1.9mm|CornerRadius=0.494mm|HoleSize=0mm|Usage=FLASHONLY|Rotation=270.000|XOffset=0mm|YOffset=0mm|HoleType=Round|Shape=RoundedRectangle|*
%AMROUNDEDRECTD43*
21,1,2.100,0.912,0,0,270.0*
21,1,1.112,1.900,0,0,270.0*
1,1,0.988,-0.456,-0.556*
1,1,0.988,-0.456,0.556*
1,1,0.988,0.456,0.556*
1,1,0.988,0.456,-0.556*
%
%ADD43ROUNDEDRECTD43*%
%ADD44C,3.600*%
%ADD45C,0.600*%
G36*
X24151Y18980D02*
Y17780D01*
X24187Y17506D01*
X24293Y17250D01*
X24461Y17031D01*
X24680Y16863D01*
X24917Y16765D01*
Y14940D01*
X24939Y14828D01*
X25003Y14733D01*
X27131Y12604D01*
X27115Y12525D01*
X27154Y12330D01*
X27264Y12165D01*
X27430Y12054D01*
X27625Y12015D01*
X27704Y12031D01*
X28415Y11320D01*
X28366Y11203D01*
X27986D01*
X25807Y13382D01*
X25712Y13446D01*
X25600Y13468D01*
X22956D01*
X22911Y13535D01*
X22843Y13580D01*
Y13879D01*
X22882Y13918D01*
X22946Y14013D01*
X22968Y14125D01*
Y16767D01*
X23200Y16863D01*
X23419Y17031D01*
X23587Y17250D01*
X23693Y17506D01*
X23729Y17780D01*
Y19070D01*
X24061Y19070D01*
X24151Y18980D01*
D02*
G37*
G36*
X40875Y15490D02*
X37089Y11703D01*
X33296D01*
X33277Y11716D01*
X33150Y11741D01*
X32755D01*
X32647Y11758D01*
X32631Y11865D01*
Y12260D01*
X32606Y12387D01*
X32593Y12406D01*
Y12678D01*
X35521Y15607D01*
X40826D01*
X40875Y15490D01*
D02*
G37*
G36*
X26239Y12121D02*
X26191Y12004D01*
X25977D01*
Y11377D01*
X26579D01*
Y11616D01*
X26696Y11664D01*
X27658Y10703D01*
X27753Y10639D01*
X27865Y10617D01*
X28491D01*
X28547Y10537D01*
X29200D01*
Y10283D01*
X28547D01*
X28491Y10203D01*
X26525D01*
Y10350D01*
X25175D01*
Y9943D01*
X24980D01*
X24935Y10010D01*
X24770Y10121D01*
X24575Y10160D01*
X24380Y10121D01*
X24215Y10010D01*
X24104Y9845D01*
X24065Y9650D01*
X24104Y9455D01*
X24215Y9290D01*
X24380Y9179D01*
X24575Y9140D01*
X24770Y9179D01*
X24935Y9290D01*
X24980Y9357D01*
X25175D01*
Y8950D01*
X25544D01*
X25583Y8823D01*
X25490Y8761D01*
X25379Y8595D01*
X25340Y8400D01*
X25356Y8321D01*
X23678Y6643D01*
X22325D01*
Y6825D01*
X21452D01*
X21325Y6825D01*
X21325D01*
D01*
X21198Y6825D01*
X20325D01*
Y6643D01*
X19955D01*
X19910Y6710D01*
X19745Y6821D01*
X19550Y6860D01*
X19355Y6821D01*
X19190Y6710D01*
X19079Y6545D01*
X19040Y6350D01*
X19079Y6155D01*
X19190Y5990D01*
X19355Y5879D01*
X19550Y5840D01*
X19745Y5879D01*
X19910Y5990D01*
X19955Y6057D01*
X20325D01*
Y5875D01*
X21198D01*
X21325Y5875D01*
X21325D01*
X21452Y5875D01*
X22325D01*
Y6057D01*
X23800D01*
X23912Y6079D01*
X24007Y6143D01*
X25771Y7906D01*
X25850Y7890D01*
X26045Y7929D01*
X26210Y8040D01*
X26321Y8205D01*
X26360Y8400D01*
X26321Y8595D01*
X26210Y8761D01*
X26117Y8823D01*
X26156Y8950D01*
X26525D01*
Y9617D01*
X28086D01*
X28135Y9500D01*
X22463Y3827D01*
X22399Y3732D01*
X22377Y3620D01*
Y3555D01*
X22140Y3457D01*
X21921Y3289D01*
X21753Y3070D01*
X21647Y2814D01*
X21611Y2540D01*
Y1250D01*
X21279D01*
X21189Y1340D01*
Y2540D01*
X21180Y2609D01*
Y3590D01*
X20199D01*
X20130Y3599D01*
X20061Y3590D01*
X19717D01*
Y4065D01*
X19860D01*
Y5015D01*
X18860D01*
Y5015D01*
Y5015D01*
X18860D01*
Y5015D01*
X18860Y5015D01*
X17860D01*
Y4768D01*
X16569D01*
X16475Y4895D01*
X16475Y4975D01*
X16475Y4975D01*
Y4975D01*
X16475D01*
X16475Y4975D01*
Y5946D01*
X16504D01*
Y6398D01*
X16000D01*
Y6652D01*
X16504D01*
Y7006D01*
X16873D01*
Y7510D01*
X17127D01*
Y7006D01*
X17579D01*
Y7060D01*
X18475D01*
Y7960D01*
X18592Y7985D01*
X19075D01*
Y9785D01*
X18054D01*
X17826Y10014D01*
X17874Y10131D01*
X18173D01*
Y11085D01*
X18300D01*
Y11212D01*
X19129D01*
Y11555D01*
X19256Y11627D01*
X19257Y11627D01*
Y9825D01*
X19279Y9713D01*
X19343Y9618D01*
X19993Y8968D01*
X20088Y8904D01*
X20200Y8882D01*
X20325D01*
Y8700D01*
X21325D01*
Y8700D01*
Y8700D01*
X21325D01*
Y8700D01*
X21325Y8700D01*
X22325D01*
X22325Y8700D01*
X22446Y8686D01*
X22550Y8665D01*
X22745Y8704D01*
X22911Y8814D01*
X23021Y8980D01*
X23060Y9175D01*
X23021Y9370D01*
X22911Y9535D01*
X22816Y9599D01*
Y9751D01*
X22911Y9814D01*
X23021Y9980D01*
X23060Y10175D01*
X23021Y10370D01*
X22911Y10535D01*
X22816Y10599D01*
Y10751D01*
X22911Y10814D01*
X23021Y10980D01*
X23060Y11175D01*
X23021Y11370D01*
X22911Y11535D01*
X22816Y11599D01*
Y11751D01*
X22911Y11815D01*
X23021Y11980D01*
X23060Y12175D01*
X23021Y12370D01*
X22911Y12535D01*
X22816Y12599D01*
Y12751D01*
X22911Y12815D01*
X22956Y12882D01*
X25479D01*
X26239Y12121D01*
D02*
G37*
G36*
X2750Y5960D02*
X2746Y5912D01*
X2739Y5859D01*
X2724Y5806D01*
X2708Y5763D01*
X2688Y5721D01*
X2660Y5677D01*
X2631Y5639D01*
X2597Y5600D01*
X2561Y5571D01*
X2524Y5543D01*
X2483Y5519D01*
X2441Y5499D01*
X2399Y5483D01*
X2348Y5471D01*
X2303Y5464D01*
X2250Y5460D01*
X1350D01*
X1295Y5464D01*
X1250Y5472D01*
X1200Y5484D01*
X1160Y5500D01*
X1127Y5513D01*
X1084Y5538D01*
X1047Y5564D01*
X1009Y5595D01*
X968Y5640D01*
X938Y5680D01*
X909Y5726D01*
X885Y5779D01*
X859Y5866D01*
X850Y5960D01*
Y7560D01*
X2750D01*
Y5960D01*
D02*
G37*
G36*
X46140Y7395D02*
X46088Y7268D01*
X41511D01*
X38780Y10000D01*
X38828Y10117D01*
X43419D01*
X46140Y7395D01*
D02*
G37*
G36*
X26691Y18980D02*
Y17780D01*
X26727Y17506D01*
X26833Y17250D01*
X27001Y17031D01*
X27220Y16863D01*
X27444Y16770D01*
Y14625D01*
X27444Y14625D01*
X27467Y14508D01*
X27534Y14409D01*
X28428Y13514D01*
X28415Y13450D01*
X28454Y13255D01*
X28564Y13090D01*
X28730Y12979D01*
X28925Y12940D01*
X28989Y12953D01*
X29494Y12448D01*
Y12387D01*
X29494Y12387D01*
X29469Y12260D01*
Y11865D01*
X29452Y11758D01*
X29345Y11741D01*
X28950D01*
X28844Y11720D01*
X28119Y12446D01*
X28135Y12525D01*
X28096Y12720D01*
X27985Y12885D01*
X27820Y12996D01*
X27625Y13035D01*
X27545Y13019D01*
X25503Y15061D01*
Y16765D01*
X25740Y16863D01*
X25959Y17031D01*
X26127Y17250D01*
X26233Y17506D01*
X26269Y17780D01*
Y19070D01*
X26601D01*
X26691Y18980D01*
D02*
G37*
G36*
X13991Y18980D02*
Y17780D01*
X14027Y17506D01*
X14133Y17250D01*
X14301Y17031D01*
X14520Y16863D01*
X14757Y16765D01*
Y16675D01*
X14779Y16563D01*
X14843Y16468D01*
X15307Y16004D01*
Y13124D01*
X15275Y13010D01*
X14219D01*
X14129Y13100D01*
Y13458D01*
X13725D01*
Y13712D01*
X14129D01*
Y14264D01*
X14208Y14294D01*
Y14810D01*
Y15314D01*
X13963D01*
X13871Y15441D01*
X13895Y15560D01*
X13856Y15755D01*
X13745Y15920D01*
X13580Y16031D01*
X13385Y16070D01*
X13306Y16054D01*
X13227Y16132D01*
X13132Y16196D01*
X13020Y16218D01*
X12550D01*
Y16425D01*
X11650D01*
Y16425D01*
X11650Y16425D01*
X11650Y16425D01*
X11529Y16410D01*
X11344D01*
X11281Y16537D01*
X11315Y16582D01*
X11605D01*
X11717Y16604D01*
X11812Y16668D01*
X12000Y16855D01*
X12236Y16757D01*
X12510Y16721D01*
X12784Y16757D01*
X13040Y16863D01*
X13259Y17031D01*
X13427Y17250D01*
X13533Y17506D01*
X13569Y17780D01*
Y19070D01*
X13901D01*
X13991Y18980D01*
D02*
G37*
G36*
X21611Y18980D02*
Y17780D01*
X21647Y17506D01*
X21753Y17250D01*
X21921Y17031D01*
X22140Y16863D01*
X22382Y16763D01*
Y14246D01*
X22343Y14207D01*
X22279Y14112D01*
X22257Y14000D01*
Y13740D01*
X22167Y13650D01*
X21452D01*
X21325Y13650D01*
X21325D01*
D01*
X21198Y13650D01*
X20325D01*
Y13468D01*
X19121D01*
X18132Y14457D01*
X18037Y14521D01*
X17960Y14536D01*
X17910Y14610D01*
X17745Y14721D01*
X17550Y14760D01*
X17355Y14721D01*
X17190Y14610D01*
X17079Y14445D01*
X17040Y14250D01*
X17079Y14055D01*
X17190Y13890D01*
X17355Y13779D01*
X17550Y13740D01*
X17745Y13779D01*
X17887Y13874D01*
X18793Y12968D01*
X18888Y12904D01*
X19000Y12882D01*
X20235D01*
X20298Y12819D01*
X20325Y12755D01*
Y12700D01*
X20325Y12620D01*
X20325Y12595D01*
X20272Y12468D01*
X19955D01*
X19910Y12535D01*
X19745Y12646D01*
X19550Y12685D01*
X19355Y12646D01*
X19190Y12535D01*
X19079Y12370D01*
X19040Y12175D01*
X19048Y12137D01*
X18967Y12039D01*
X18529D01*
Y12308D01*
X17950D01*
Y12435D01*
X17823D01*
Y12939D01*
X17371D01*
Y12885D01*
X16475D01*
Y11985D01*
X16247D01*
X16202Y12112D01*
X16246Y12178D01*
X16268Y12290D01*
Y15979D01*
X17125Y16836D01*
X17316Y16757D01*
X17590Y16721D01*
X17864Y16757D01*
X18120Y16863D01*
X18339Y17031D01*
X18507Y17250D01*
X18613Y17506D01*
X18649Y17780D01*
Y19070D01*
X21521Y19070D01*
X21611Y18980D01*
D02*
G37*
G36*
X16531Y18980D02*
Y17780D01*
X16567Y17506D01*
X16673Y17250D01*
X16689Y17229D01*
X15800Y16340D01*
X15446Y16693D01*
X15471Y16818D01*
X15580Y16863D01*
X15799Y17031D01*
X15967Y17250D01*
X16073Y17506D01*
X16109Y17780D01*
Y19070D01*
X16441D01*
X16531Y18980D01*
D02*
G37*
G36*
X2305Y14856D02*
X2350Y14848D01*
X2400Y14836D01*
X2440Y14820D01*
X2473Y14807D01*
X2516Y14782D01*
X2553Y14756D01*
X2591Y14725D01*
X2632Y14680D01*
X2662Y14640D01*
X2691Y14594D01*
X2715Y14541D01*
X2741Y14454D01*
X2750Y14360D01*
Y12760D01*
X850D01*
Y14360D01*
X854Y14408D01*
X861Y14461D01*
X876Y14514D01*
X892Y14557D01*
X912Y14599D01*
X940Y14643D01*
X969Y14681D01*
X1003Y14720D01*
X1039Y14749D01*
X1076Y14777D01*
X1117Y14801D01*
X1159Y14821D01*
X1201Y14837D01*
X1252Y14849D01*
X1297Y14856D01*
X1350Y14860D01*
X2250D01*
X2305Y14856D01*
D02*
G37*
G36*
X29231Y18980D02*
Y17780D01*
X29267Y17506D01*
X29373Y17250D01*
X29541Y17031D01*
X29760Y16863D01*
X29997Y16765D01*
Y14055D01*
X29930Y14010D01*
X29819Y13845D01*
X29780Y13650D01*
X29819Y13455D01*
X29930Y13290D01*
X29997Y13245D01*
Y12977D01*
X29880Y12928D01*
X29422Y13386D01*
X29435Y13450D01*
X29396Y13645D01*
X29285Y13811D01*
X29120Y13921D01*
X28925Y13960D01*
X28860Y13947D01*
X28056Y14752D01*
Y16770D01*
X28280Y16863D01*
X28499Y17031D01*
X28667Y17250D01*
X28773Y17506D01*
X28809Y17780D01*
Y19070D01*
X29141D01*
X29231Y18980D01*
D02*
G37*
G36*
X14596Y7183D02*
X14554Y7120D01*
X14515Y6925D01*
X14554Y6730D01*
X14665Y6565D01*
X14732Y6520D01*
Y5975D01*
X14550D01*
Y5079D01*
X14496D01*
Y4627D01*
X15000D01*
Y4500D01*
X15127D01*
Y3921D01*
X15504D01*
X15504Y3921D01*
X15504Y3921D01*
X15504Y3921D01*
X15609Y3975D01*
X16475D01*
Y4182D01*
X17860D01*
Y4065D01*
X18003D01*
Y3590D01*
X17659D01*
X17590Y3599D01*
X17521Y3590D01*
X16540D01*
Y2609D01*
X16531Y2540D01*
Y1250D01*
X16199D01*
X16109Y1340D01*
Y2540D01*
X16073Y2814D01*
X15967Y3070D01*
X15799Y3289D01*
X15580Y3457D01*
X15324Y3563D01*
X15050Y3599D01*
X14776Y3563D01*
X14520Y3457D01*
X14301Y3289D01*
X14133Y3070D01*
X14027Y2814D01*
X13991Y2540D01*
Y1250D01*
X13659D01*
X13569Y1340D01*
Y2540D01*
X13533Y2814D01*
X13427Y3070D01*
X13259Y3289D01*
X13040Y3457D01*
X12784Y3563D01*
X12510Y3599D01*
X12236Y3563D01*
X11980Y3457D01*
X11761Y3289D01*
X11593Y3070D01*
X11487Y2814D01*
X11451Y2540D01*
Y1250D01*
X11119D01*
X11029Y1340D01*
Y2540D01*
X10993Y2814D01*
X10887Y3070D01*
X10719Y3289D01*
X10500Y3457D01*
X10244Y3563D01*
X9970Y3599D01*
X9696Y3563D01*
X9440Y3457D01*
X9221Y3289D01*
X9053Y3070D01*
X8947Y2814D01*
X8911Y2540D01*
Y1250D01*
X8579D01*
X8489Y1340D01*
Y2540D01*
X8453Y2814D01*
X8347Y3070D01*
X8179Y3289D01*
X7991Y3433D01*
X8029Y3560D01*
X9225D01*
Y4058D01*
X9482Y4092D01*
X9831Y4237D01*
X10131Y4467D01*
X10131Y4467D01*
X10131Y4467D01*
X10199Y4536D01*
X10213Y4556D01*
X10434Y4825D01*
X10444Y4844D01*
X10571Y4813D01*
Y4537D01*
X11579D01*
Y4989D01*
X11525D01*
Y5225D01*
X11652Y5315D01*
X11776Y5290D01*
X11971Y5329D01*
X12136Y5440D01*
X12247Y5605D01*
X12285Y5800D01*
X12249Y5983D01*
X12255Y6017D01*
X12305Y6110D01*
X14075D01*
Y7306D01*
X14079D01*
Y7310D01*
X14528D01*
X14596Y7183D01*
D02*
G37*
G36*
X37000Y3050D02*
X36902Y2814D01*
X36866Y2540D01*
Y1250D01*
X36519D01*
X36429Y1340D01*
Y2540D01*
X36393Y2814D01*
X36287Y3070D01*
X36119Y3289D01*
X35900Y3457D01*
X35644Y3563D01*
X35370Y3599D01*
X35096Y3563D01*
X34860Y3465D01*
X34685Y3640D01*
X34734Y3757D01*
X36293D01*
X37000Y3050D01*
D02*
G37*
G36*
X39541Y3054D02*
X39442Y2814D01*
X39406Y2540D01*
Y1250D01*
X39074D01*
X38984Y1340D01*
Y2540D01*
X38948Y2814D01*
X38842Y3070D01*
X38674Y3289D01*
X38454Y3457D01*
X38199Y3563D01*
X37925Y3599D01*
X37651Y3563D01*
X37414Y3465D01*
X36865Y4015D01*
X36913Y4132D01*
X38463D01*
X39541Y3054D01*
D02*
G37*
G36*
X30007Y5376D02*
Y3559D01*
X29760Y3457D01*
X29541Y3289D01*
X29373Y3070D01*
X29267Y2814D01*
X29231Y2540D01*
Y1250D01*
X28899D01*
X28809Y1340D01*
Y2540D01*
X28773Y2814D01*
X28667Y3070D01*
X28499Y3289D01*
X28280Y3457D01*
X28154Y3509D01*
X28124Y3659D01*
X29889Y5425D01*
X30007Y5376D01*
D02*
G37*
G36*
X24917Y5286D02*
Y3555D01*
X24680Y3457D01*
X24461Y3289D01*
X24293Y3070D01*
X24187Y2814D01*
X24151Y2540D01*
Y1250D01*
X23819D01*
X23729Y1340D01*
Y2540D01*
X23693Y2814D01*
X23587Y3070D01*
X23419Y3289D01*
X23200Y3457D01*
X23109Y3495D01*
X23084Y3619D01*
X24800Y5335D01*
X24917Y5286D01*
D02*
G37*
G36*
X28823Y8604D02*
X28950Y8579D01*
X29345D01*
X29452Y8562D01*
X29469Y8455D01*
Y8060D01*
X29494Y7933D01*
X29507Y7914D01*
Y5871D01*
X27543Y3907D01*
X27479Y3812D01*
X27457Y3700D01*
Y3555D01*
X27220Y3457D01*
X27001Y3289D01*
X26833Y3070D01*
X26727Y2814D01*
X26691Y2540D01*
Y1250D01*
X26359D01*
X26269Y1340D01*
Y2540D01*
X26233Y2814D01*
X26127Y3070D01*
X25959Y3289D01*
X25740Y3457D01*
X25503Y3555D01*
Y5464D01*
X28656Y8617D01*
X28804D01*
X28823Y8604D01*
D02*
G37*
G36*
X42081Y3054D02*
X41982Y2814D01*
X41946Y2540D01*
Y1250D01*
X41614D01*
X41524Y1340D01*
Y2540D01*
X41488Y2814D01*
X41382Y3070D01*
X41214Y3289D01*
X40994Y3457D01*
X40739Y3563D01*
X40465Y3599D01*
X40191Y3563D01*
X39958Y3467D01*
X39083Y4342D01*
X39131Y4459D01*
X40676D01*
X42081Y3054D01*
D02*
G37*
G36*
X33778Y3717D02*
X33726Y3590D01*
X32899D01*
X32830Y3599D01*
X32761Y3590D01*
X31780D01*
Y2609D01*
X31771Y2540D01*
Y1250D01*
X31439Y1250D01*
X31349Y1340D01*
Y2540D01*
X31313Y2814D01*
X31207Y3070D01*
X31039Y3289D01*
X30820Y3457D01*
X30593Y3551D01*
Y6737D01*
X30710Y6785D01*
X33778Y3717D01*
D02*
G37*
G36*
X4218Y8279D02*
X4183Y8252D01*
X4067Y8101D01*
X3994Y7924D01*
X3969Y7735D01*
X3994Y7546D01*
X4067Y7369D01*
X4183Y7218D01*
X4334Y7102D01*
X4511Y7029D01*
X4700Y7004D01*
X4900D01*
X5001Y7017D01*
X5128Y6916D01*
Y5789D01*
X5134Y5761D01*
X5166Y5439D01*
X5268Y5101D01*
X5434Y4790D01*
X5640Y4540D01*
X5656Y4516D01*
X5688Y4494D01*
X5903Y4318D01*
X6181Y4170D01*
X6483Y4078D01*
X6625Y4064D01*
Y3560D01*
X6831D01*
X6869Y3433D01*
X6681Y3289D01*
X6513Y3070D01*
X6407Y2814D01*
X6371Y2540D01*
Y676D01*
X6327Y555D01*
X1500D01*
X1499Y555D01*
X1255Y587D01*
X1027Y681D01*
X832Y832D01*
X681Y1027D01*
X587Y1255D01*
X555Y1499D01*
X555Y1500D01*
Y5714D01*
X682Y5739D01*
X698Y5700D01*
X699Y5695D01*
X710Y5671D01*
X738Y5604D01*
X849Y5459D01*
X917Y5407D01*
X918Y5406D01*
X918Y5406D01*
X994Y5348D01*
X1051Y5324D01*
X1052Y5323D01*
X1072Y5316D01*
X1163Y5278D01*
X1217Y5271D01*
X1259Y5263D01*
X1270Y5263D01*
X1280Y5261D01*
X1311Y5258D01*
X1344Y5254D01*
X2256D01*
X2291Y5259D01*
X2318Y5261D01*
X2326Y5263D01*
X2334Y5262D01*
X2379Y5269D01*
X2383Y5271D01*
X2437Y5278D01*
X2481Y5296D01*
X2514Y5308D01*
X2519Y5312D01*
X2523Y5314D01*
X2529Y5315D01*
X2543Y5322D01*
X2606Y5348D01*
X2751Y5459D01*
X2862Y5604D01*
X2889Y5670D01*
X2892Y5675D01*
X2893Y5678D01*
X2898Y5689D01*
X2899Y5692D01*
X2904Y5704D01*
X2932Y5773D01*
X2939Y5827D01*
X2941Y5832D01*
X2948Y5885D01*
X2948Y5890D01*
X2949Y5895D01*
X2951Y5916D01*
X2956Y5954D01*
Y6410D01*
X3800D01*
Y8406D01*
X4175D01*
X4218Y8279D01*
D02*
G37*
G36*
X41182Y6768D02*
X41277Y6704D01*
X41390Y6682D01*
X46073D01*
X49701Y3054D01*
X49602Y2814D01*
X49566Y2540D01*
Y1250D01*
X49234D01*
X49144Y1340D01*
Y2540D01*
X49108Y2814D01*
X49002Y3070D01*
X48834Y3289D01*
X48614Y3457D01*
X48359Y3563D01*
X48085Y3599D01*
X47811Y3563D01*
X47578Y3467D01*
X44612Y6432D01*
X44517Y6496D01*
X44405Y6518D01*
X40346D01*
X38319Y8546D01*
X38335Y8625D01*
X38296Y8820D01*
X38186Y8985D01*
X38020Y9096D01*
X37825Y9135D01*
X37746Y9119D01*
X37365Y9500D01*
X37414Y9617D01*
X38333D01*
X41182Y6768D01*
D02*
G37*
G36*
X37181Y7229D02*
X37165Y7150D01*
X37204Y6955D01*
X37315Y6790D01*
X37480Y6679D01*
X37675Y6640D01*
X37754Y6656D01*
X39143Y5268D01*
X39238Y5204D01*
X39350Y5182D01*
X42493D01*
X44621Y3054D01*
X44522Y2814D01*
X44486Y2540D01*
Y1250D01*
X44154D01*
X44064Y1340D01*
Y2540D01*
X44028Y2814D01*
X43922Y3070D01*
X43754Y3289D01*
X43534Y3457D01*
X43279Y3563D01*
X43005Y3599D01*
X42731Y3563D01*
X42498Y3467D01*
X41005Y4959D01*
X40910Y5023D01*
X40798Y5045D01*
X35094D01*
X32593Y7547D01*
Y7914D01*
X32606Y7933D01*
X32631Y8060D01*
Y8455D01*
X32647Y8562D01*
X32755Y8579D01*
X33150D01*
X33277Y8604D01*
X33296Y8617D01*
X35794D01*
X37181Y7229D01*
D02*
G37*
G36*
X37331Y8704D02*
X37315Y8625D01*
X37354Y8430D01*
X37465Y8265D01*
X37630Y8154D01*
X37825Y8115D01*
X37904Y8131D01*
X40018Y6018D01*
X40113Y5954D01*
X40225Y5932D01*
X44283D01*
X47161Y3054D01*
X47062Y2814D01*
X47026Y2540D01*
Y1250D01*
X46694D01*
X46604Y1340D01*
Y2540D01*
X46568Y2814D01*
X46462Y3070D01*
X46294Y3289D01*
X46074Y3457D01*
X45819Y3563D01*
X45545Y3599D01*
X45271Y3563D01*
X45038Y3467D01*
X42822Y5682D01*
X42727Y5746D01*
X42615Y5768D01*
X39471D01*
X38169Y7071D01*
X38185Y7150D01*
X38146Y7345D01*
X38035Y7510D01*
X37870Y7621D01*
X37675Y7660D01*
X37596Y7644D01*
X36240Y9000D01*
X36289Y9117D01*
X36919D01*
X37331Y8704D01*
D02*
G37*
G36*
X11451Y18980D02*
Y17780D01*
X11487Y17506D01*
X11585Y17270D01*
X11484Y17168D01*
X11136D01*
X11074Y17219D01*
Y17653D01*
X10097D01*
Y16676D01*
X10357D01*
X10406Y16559D01*
X10293Y16446D01*
X10239Y16365D01*
X10216Y16347D01*
X10092Y16310D01*
X10009Y16365D01*
X9775Y16412D01*
X9541Y16365D01*
X9342Y16233D01*
X9327Y16210D01*
X9200Y16248D01*
Y16310D01*
X8250D01*
Y16116D01*
X8050D01*
Y16300D01*
X7889D01*
Y16730D01*
X8480D01*
Y17711D01*
X8489Y17780D01*
Y19070D01*
X11361Y19070D01*
X11451Y18980D01*
D02*
G37*
G36*
X47026Y18980D02*
Y17785D01*
Y17780D01*
X47062Y17506D01*
X47158Y17273D01*
X45678Y15793D01*
X42550D01*
X42438Y15771D01*
X42343Y15707D01*
X37839Y11203D01*
X37584D01*
X37535Y11320D01*
X42196Y15982D01*
X44035D01*
X44147Y16004D01*
X44242Y16068D01*
X45031Y16856D01*
X45271Y16757D01*
X45545Y16721D01*
X45819Y16757D01*
X46074Y16863D01*
X46294Y17031D01*
X46462Y17250D01*
X46568Y17506D01*
X46604Y17780D01*
Y17785D01*
Y19070D01*
X46936D01*
X47026Y18980D01*
D02*
G37*
G36*
X44486Y18980D02*
Y17785D01*
Y17780D01*
X44522Y17506D01*
X44618Y17273D01*
X43913Y16568D01*
X42368D01*
X42320Y16685D01*
X42491Y16856D01*
X42731Y16757D01*
X43005Y16721D01*
X43279Y16757D01*
X43534Y16863D01*
X43754Y17031D01*
X43922Y17250D01*
X44028Y17506D01*
X44064Y17780D01*
Y19070D01*
X44396D01*
X44486Y18980D01*
D02*
G37*
G36*
X34311Y18980D02*
Y17780D01*
X34347Y17506D01*
X34445Y17270D01*
X34051Y16876D01*
X33934Y16924D01*
Y17653D01*
X32957D01*
Y16676D01*
X33686D01*
X33734Y16559D01*
X30912Y13737D01*
X30774Y13778D01*
X30761Y13845D01*
X30650Y14010D01*
X30583Y14055D01*
Y16765D01*
X30820Y16863D01*
X31039Y17031D01*
X31207Y17250D01*
X31313Y17506D01*
X31349Y17780D01*
Y19070D01*
X34221Y19070D01*
X34311Y18980D01*
D02*
G37*
G36*
X1500Y19765D02*
X6327D01*
X6371Y19653D01*
Y17808D01*
X6156D01*
Y18032D01*
X4994D01*
Y16871D01*
X6156D01*
Y17095D01*
X6380D01*
Y16730D01*
X6971D01*
Y16300D01*
X6450D01*
Y14550D01*
X6791D01*
Y14413D01*
X6779Y14395D01*
X6740Y14200D01*
X6753Y14136D01*
X6477Y13860D01*
X6175D01*
Y13544D01*
X6048Y13465D01*
X5900Y13495D01*
X5705Y13456D01*
X5540Y13345D01*
X5461Y13228D01*
X5310Y13184D01*
X5266Y13218D01*
X5089Y13291D01*
X4900Y13316D01*
X4700D01*
X4511Y13291D01*
X4334Y13218D01*
X4183Y13102D01*
X4067Y12951D01*
X4009Y12811D01*
X3882Y12836D01*
Y13672D01*
X3885Y13675D01*
X3996Y13840D01*
X4035Y14035D01*
X3996Y14230D01*
X3885Y14395D01*
X3882Y14398D01*
Y14627D01*
X4323Y15068D01*
X4550D01*
Y14550D01*
X6150D01*
Y16300D01*
X4550D01*
Y15782D01*
X4175D01*
X4038Y15755D01*
X3923Y15677D01*
X3273Y15027D01*
X3195Y14912D01*
X3168Y14775D01*
Y14398D01*
X3165Y14395D01*
X3083Y14273D01*
X2956Y14312D01*
Y14366D01*
X2950Y14414D01*
X2944Y14473D01*
X2940Y14486D01*
X2932Y14547D01*
X2902Y14620D01*
X2901Y14625D01*
X2890Y14649D01*
X2862Y14716D01*
X2751Y14861D01*
X2683Y14913D01*
X2682Y14914D01*
X2682Y14914D01*
X2606Y14972D01*
X2549Y14996D01*
X2548Y14997D01*
X2528Y15004D01*
X2437Y15042D01*
X2383Y15049D01*
X2341Y15057D01*
X2330Y15057D01*
X2320Y15059D01*
X2289Y15062D01*
X2256Y15066D01*
X1344D01*
X1309Y15061D01*
X1282Y15059D01*
X1274Y15057D01*
X1266Y15057D01*
X1221Y15050D01*
X1217Y15049D01*
X1163Y15042D01*
X1119Y15024D01*
X1086Y15012D01*
X1081Y15008D01*
X1077Y15006D01*
X1071Y15005D01*
X1057Y14998D01*
X994Y14972D01*
X849Y14861D01*
X738Y14716D01*
X711Y14650D01*
X708Y14645D01*
X707Y14642D01*
X702Y14631D01*
X701Y14628D01*
X696Y14616D01*
X682Y14581D01*
X555Y14606D01*
Y18820D01*
X555Y18821D01*
X587Y19065D01*
X681Y19293D01*
X831Y19489D01*
X1027Y19639D01*
X1255Y19733D01*
X1498Y19765D01*
X1500D01*
D02*
G37*
G36*
X41946Y18980D02*
Y17780D01*
X41982Y17506D01*
X42078Y17273D01*
X40998Y16193D01*
X39453D01*
X39405Y16310D01*
X39951Y16856D01*
X40191Y16757D01*
X40465Y16721D01*
X40739Y16757D01*
X40994Y16863D01*
X41214Y17031D01*
X41382Y17250D01*
X41488Y17506D01*
X41524Y17780D01*
Y19070D01*
X41856D01*
X41946Y18980D01*
D02*
G37*
G36*
X39406D02*
Y17780D01*
X39442Y17506D01*
X39538Y17273D01*
X38808Y16543D01*
X37269D01*
X37220Y16660D01*
X37414Y16855D01*
X37651Y16757D01*
X37925Y16721D01*
X38199Y16757D01*
X38454Y16863D01*
X38674Y17031D01*
X38842Y17250D01*
X38948Y17506D01*
X38984Y17780D01*
Y19070D01*
X39316D01*
X39406Y18980D01*
D02*
G37*
G36*
X57210Y19733D02*
X57438Y19639D01*
X57633Y19488D01*
X57784Y19293D01*
X57878Y19065D01*
X57910Y18821D01*
X57910Y18820D01*
Y1500D01*
X57910Y1499D01*
X57878Y1255D01*
X57784Y1027D01*
X57633Y832D01*
X57438Y681D01*
X57210Y587D01*
X56966Y555D01*
X56965Y555D01*
X56925D01*
X56835Y645D01*
Y1250D01*
X56835D01*
X56764Y1321D01*
Y2540D01*
X56755Y2609D01*
Y3590D01*
X55774D01*
X55705Y3599D01*
X55636Y3590D01*
X54655D01*
Y2609D01*
X54646Y2540D01*
Y1250D01*
X54314D01*
X54224Y1340D01*
Y2540D01*
X54188Y2814D01*
X54082Y3070D01*
X53914Y3289D01*
X53694Y3457D01*
X53439Y3563D01*
X53165Y3599D01*
X52891Y3563D01*
X52654Y3465D01*
X50262Y5857D01*
X50167Y5921D01*
X50055Y5943D01*
X48421D01*
X47032Y7333D01*
X47080Y7450D01*
X47900D01*
Y8750D01*
X47506D01*
Y11550D01*
X47900D01*
Y12850D01*
X46500D01*
Y12493D01*
X46130D01*
X46085Y12560D01*
X45920Y12671D01*
X45725Y12710D01*
X45530Y12671D01*
X45364Y12560D01*
X45254Y12395D01*
X45215Y12200D01*
X45254Y12005D01*
X45364Y11840D01*
X45530Y11729D01*
X45725Y11690D01*
X45920Y11729D01*
X46085Y11840D01*
X46130Y11907D01*
X46500D01*
Y11550D01*
X46894D01*
Y8750D01*
X46500D01*
Y8030D01*
X46383Y7982D01*
X43747Y10617D01*
X43652Y10681D01*
X43540Y10703D01*
X38334D01*
X38285Y10820D01*
X42671Y15207D01*
X45800D01*
X45912Y15229D01*
X46007Y15293D01*
X47571Y16856D01*
X47811Y16757D01*
X48085Y16721D01*
X48359Y16757D01*
X48614Y16863D01*
X48834Y17031D01*
X49002Y17250D01*
X49108Y17506D01*
X49144Y17780D01*
Y17785D01*
Y19070D01*
X56835Y19070D01*
Y19675D01*
X56925Y19765D01*
X56965D01*
X56965Y19765D01*
X56967D01*
X57210Y19733D01*
D02*
G37*
G36*
X36866Y18980D02*
Y17780D01*
X36902Y17506D01*
X37000Y17270D01*
X36623Y16893D01*
X36137D01*
X36096Y17013D01*
X36119Y17031D01*
X36287Y17250D01*
X36393Y17506D01*
X36429Y17780D01*
Y19070D01*
X36776D01*
X36866Y18980D01*
D02*
G37*
%LPC*%
G36*
X57710Y13950D02*
X56421D01*
Y12660D01*
X56683D01*
Y11849D01*
X56421D01*
Y10561D01*
X56588D01*
X56650Y10434D01*
X56594Y10350D01*
X56555Y10155D01*
X56594Y9960D01*
X56650Y9877D01*
X56588Y9750D01*
X56421D01*
Y8460D01*
X56683D01*
Y7649D01*
X56421D01*
Y6360D01*
X57710D01*
Y7649D01*
X57447D01*
Y8460D01*
X57710D01*
Y9750D01*
X57542D01*
X57480Y9877D01*
X57536Y9960D01*
X57575Y10155D01*
X57536Y10350D01*
X57480Y10434D01*
X57542Y10561D01*
X57710D01*
Y11849D01*
X57447D01*
Y12660D01*
X57710D01*
Y13950D01*
D02*
G37*
G36*
X9843Y18884D02*
X8866D01*
Y17907D01*
X9843D01*
Y18884D01*
D02*
G37*
G36*
X52265Y7680D02*
X50865D01*
Y6330D01*
X52265D01*
Y7680D01*
D02*
G37*
G36*
X53965D02*
X52565D01*
Y6330D01*
X53965D01*
Y6712D01*
X54721D01*
Y6360D01*
X56009D01*
Y7649D01*
X54721D01*
Y7298D01*
X53965D01*
Y7680D01*
D02*
G37*
G36*
X49554Y8804D02*
X48927D01*
Y8227D01*
X49554D01*
Y8804D01*
D02*
G37*
G36*
X52265Y9780D02*
X50865D01*
Y8430D01*
X52265D01*
Y9780D01*
D02*
G37*
G36*
X53965D02*
X52565D01*
Y8430D01*
X53965D01*
Y8812D01*
X54721D01*
Y8460D01*
X56009D01*
Y9750D01*
X54721D01*
Y9398D01*
X53965D01*
Y9780D01*
D02*
G37*
G36*
X48673Y7973D02*
X48046D01*
Y7396D01*
X48673D01*
Y7973D01*
D02*
G37*
G36*
X49554D02*
X48927D01*
Y7396D01*
X49554D01*
Y7973D01*
D02*
G37*
G36*
X48673Y8804D02*
X48046D01*
Y8227D01*
X48673D01*
Y8804D01*
D02*
G37*
G36*
X56809Y18884D02*
X55832D01*
Y17907D01*
X56809D01*
Y18884D01*
D02*
G37*
G36*
X55578D02*
X54601D01*
Y17907D01*
X55578D01*
Y18884D01*
D02*
G37*
G36*
X33934D02*
X32957D01*
Y17907D01*
X33934D01*
Y18884D01*
D02*
G37*
G36*
X5448Y18722D02*
X4940D01*
Y18213D01*
X5448D01*
Y18722D01*
D02*
G37*
G36*
X6210Y19483D02*
X5702D01*
Y18976D01*
X6210D01*
Y19483D01*
D02*
G37*
G36*
X5448D02*
X4940D01*
Y18976D01*
X5448D01*
Y19483D01*
D02*
G37*
G36*
X6210Y18722D02*
X5702D01*
Y18213D01*
X6210D01*
Y18722D01*
D02*
G37*
G36*
X11579Y4283D02*
X11202D01*
Y3831D01*
X11579D01*
Y4283D01*
D02*
G37*
G36*
X14873Y4373D02*
X14496D01*
Y3921D01*
X14873D01*
Y4373D01*
D02*
G37*
G36*
X11074Y18884D02*
X10097D01*
Y17907D01*
X11074D01*
Y18884D01*
D02*
G37*
G36*
X10948Y4283D02*
X10571D01*
Y3831D01*
X10948D01*
Y4283D01*
D02*
G37*
G36*
X32703Y18884D02*
X31726D01*
Y17907D01*
X32703D01*
Y18884D01*
D02*
G37*
G36*
X21234D02*
X20257D01*
Y17907D01*
X21234D01*
Y18884D01*
D02*
G37*
G36*
X20003D02*
X19026D01*
Y17907D01*
X20003D01*
Y18884D01*
D02*
G37*
G36*
X52265Y13980D02*
X50865D01*
Y12630D01*
X52265D01*
Y13980D01*
D02*
G37*
G36*
X53965D02*
X52565D01*
Y12630D01*
X53965D01*
Y13012D01*
X54721D01*
Y12660D01*
X56009D01*
Y13950D01*
X54721D01*
Y13598D01*
X53965D01*
Y13980D01*
D02*
G37*
G36*
X14914Y14683D02*
X14462D01*
Y14306D01*
X14914D01*
Y14683D01*
D02*
G37*
G36*
X48673Y12904D02*
X48046D01*
Y12327D01*
X48673D01*
Y12904D01*
D02*
G37*
G36*
X49554D02*
X48927D01*
Y12327D01*
X49554D01*
Y12904D01*
D02*
G37*
G36*
X18529Y12939D02*
X18077D01*
Y12562D01*
X18529D01*
Y12939D01*
D02*
G37*
G36*
X14914Y15314D02*
X14462D01*
Y14937D01*
X14914D01*
Y15314D01*
D02*
G37*
G36*
X32703Y17653D02*
X31726D01*
Y16676D01*
X32703D01*
Y17653D01*
D02*
G37*
G36*
X55578D02*
X54601D01*
Y16676D01*
X55578D01*
Y17653D01*
D02*
G37*
G36*
X56809D02*
X55832D01*
Y16676D01*
X56809D01*
Y17653D01*
D02*
G37*
G36*
X9843D02*
X8866D01*
Y16676D01*
X9843D01*
Y17653D01*
D02*
G37*
G36*
X20003D02*
X19026D01*
Y16676D01*
X20003D01*
Y17653D01*
D02*
G37*
G36*
X21234D02*
X20257D01*
Y16676D01*
X21234D01*
Y17653D01*
D02*
G37*
G36*
X50625Y18844D02*
X50351Y18808D01*
X50095Y18702D01*
X49876Y18534D01*
X49708Y18315D01*
X49602Y18059D01*
X49566Y17785D01*
Y17780D01*
X49602Y17506D01*
X49708Y17250D01*
X49876Y17031D01*
X50095Y16863D01*
X50351Y16757D01*
X50625Y16721D01*
X50899Y16757D01*
X51154Y16863D01*
X51374Y17031D01*
X51542Y17250D01*
X51648Y17506D01*
X51684Y17780D01*
Y17785D01*
X51648Y18059D01*
X51542Y18315D01*
X51374Y18534D01*
X51154Y18702D01*
X50899Y18808D01*
X50625Y18844D01*
D02*
G37*
G36*
X49073Y11254D02*
X48546D01*
Y10277D01*
X49073D01*
Y11254D01*
D02*
G37*
G36*
X49854D02*
X49327D01*
Y10277D01*
X49854D01*
Y11254D01*
D02*
G37*
G36*
X25723Y11123D02*
X25121D01*
Y10496D01*
X25723D01*
Y11123D01*
D02*
G37*
G36*
X49073Y10023D02*
X48546D01*
Y9046D01*
X49073D01*
Y10023D01*
D02*
G37*
G36*
X49854D02*
X49327D01*
Y9046D01*
X49854D01*
Y10023D01*
D02*
G37*
G36*
X19129Y10958D02*
X18427D01*
Y10131D01*
X19129D01*
Y10958D01*
D02*
G37*
G36*
X26579Y11123D02*
X25977D01*
Y10496D01*
X26579D01*
Y11123D01*
D02*
G37*
G36*
X48673Y12073D02*
X48046D01*
Y11496D01*
X48673D01*
Y12073D01*
D02*
G37*
G36*
X49554D02*
X48927D01*
Y11496D01*
X49554D01*
Y12073D01*
D02*
G37*
G36*
X53165Y18839D02*
X52891Y18803D01*
X52635Y18697D01*
X52416Y18529D01*
X52248Y18310D01*
X52142Y18054D01*
X52106Y17780D01*
X52142Y17506D01*
X52248Y17250D01*
X52416Y17031D01*
X52635Y16863D01*
X52891Y16757D01*
X53165Y16721D01*
X53439Y16757D01*
X53694Y16863D01*
X53914Y17031D01*
X54082Y17250D01*
X54188Y17506D01*
X54224Y17780D01*
X54188Y18054D01*
X54082Y18310D01*
X53914Y18529D01*
X53694Y18697D01*
X53439Y18803D01*
X53165Y18839D01*
D02*
G37*
G36*
X52265Y11880D02*
X50865D01*
Y10530D01*
X52265D01*
Y11880D01*
D02*
G37*
G36*
X53965D02*
X52565D01*
Y10530D01*
X53965D01*
Y10912D01*
X54721D01*
Y10561D01*
X56009D01*
Y11849D01*
X54721D01*
Y11498D01*
X53965D01*
Y11880D01*
D02*
G37*
G36*
X25723Y12004D02*
X25121D01*
Y11377D01*
X25723D01*
Y12004D01*
D02*
G37*
%LPD*%
D10*
X7285Y4475D02*
G03*
X6875Y4645I-410J-410D01*
G01*
X5730Y5789D02*
G03*
X6081Y4941I1199J0D01*
G01*
D02*
G03*
X6797Y4645I715J715D01*
G01*
X5625Y10260D02*
G03*
X5541Y10295I-84J-84D01*
G01*
X5730Y10007D02*
G03*
X5625Y10260I-359J0D01*
G01*
X6350Y5210D02*
G03*
X6797Y5025I447J447D01*
G01*
X6875D02*
G03*
X7285Y5195I0J579D01*
G01*
X6110Y5789D02*
G03*
X6350Y5210I819J0D01*
G01*
X5894Y10529D02*
G03*
X5541Y10675I-353J-353D01*
G01*
X6110Y10006D02*
G03*
X5894Y10529I-739J0D01*
G01*
X9505Y5230D02*
G03*
X9775Y5881I-651J651D01*
G01*
X9011Y5025D02*
G03*
X9505Y5230I0J699D01*
G01*
X8583Y5177D02*
G03*
X8950Y5025I367J367D01*
G01*
X9725Y6291D02*
G03*
X9775Y6170I171J0D01*
G01*
X9774Y4961D02*
G03*
X10155Y5881I-920J920D01*
G01*
X9107Y4645D02*
G03*
X9705Y4893I0J846D01*
G01*
X8950Y4645D02*
G03*
X8583Y4493I0J-519D01*
G01*
X10155Y6150D02*
G03*
X10225Y6319I-169J169D01*
G01*
X5730Y8414D02*
X5730Y8414D01*
X7285Y4475D02*
X7425Y4335D01*
X6110Y8572D02*
X6110Y8572D01*
X7285Y5195D02*
X7425Y5335D01*
X4475Y10160D02*
X5240D01*
X5375Y10295D01*
X5240Y10810D02*
X5375Y10675D01*
X4475Y10810D02*
X5240D01*
X5730Y5789D02*
Y8414D01*
X6797Y4645D02*
X6875D01*
X5375Y10295D02*
X5541D01*
X5730Y8414D02*
Y10007D01*
X6797Y5025D02*
X6875D01*
X6110Y5789D02*
Y8572D01*
X5375Y10675D02*
X5541D01*
X6110Y8572D02*
Y10006D01*
X8425Y5335D02*
X8583Y5177D01*
X8425Y4335D02*
X8583Y4493D01*
X10225Y6319D02*
Y6735D01*
X9775Y5881D02*
Y6170D01*
X8950Y5025D02*
X9011D01*
X9725Y6291D02*
Y6735D01*
X10155Y5881D02*
Y6150D01*
X9705Y4893D02*
X9774Y4961D01*
X8950Y4645D02*
X9107D01*
D11*
X9775Y15800D02*
D03*
D12*
X4475Y8860D02*
D03*
Y9510D02*
D03*
Y10160D02*
D03*
Y10810D02*
D03*
Y11460D02*
D03*
D13*
X49200Y10150D02*
D03*
D14*
X47200Y12200D02*
D03*
X48800D02*
D03*
X47200Y8100D02*
D03*
X48800D02*
D03*
D15*
X16700Y11085D02*
D03*
Y8885D02*
D03*
X18300D02*
D03*
Y11085D02*
D03*
D16*
X31050Y10160D02*
D03*
D17*
X29800Y12010D02*
D03*
X30300D02*
D03*
X30800D02*
D03*
X31300D02*
D03*
X31800D02*
D03*
X32300D02*
D03*
Y8310D02*
D03*
X31800D02*
D03*
X31300D02*
D03*
X30800D02*
D03*
X30300D02*
D03*
X29800D02*
D03*
D18*
X32900Y11410D02*
D03*
Y10910D02*
D03*
Y10410D02*
D03*
Y9910D02*
D03*
Y9410D02*
D03*
Y8910D02*
D03*
X29200D02*
D03*
Y9410D02*
D03*
Y9910D02*
D03*
Y10410D02*
D03*
Y10910D02*
D03*
Y11410D02*
D03*
D19*
X8725Y6735D02*
D03*
X9225D02*
D03*
X9725D02*
D03*
X10225D02*
D03*
X10725D02*
D03*
X11225D02*
D03*
X11725D02*
D03*
X12225D02*
D03*
X12725D02*
D03*
X13225D02*
D03*
X13725D02*
D03*
Y13585D02*
D03*
X13225D02*
D03*
X12725D02*
D03*
X12225D02*
D03*
X11725D02*
D03*
X11225D02*
D03*
X10725D02*
D03*
X10225D02*
D03*
X9725D02*
D03*
X9225D02*
D03*
X8725D02*
D03*
D20*
X14650Y7660D02*
D03*
Y8160D02*
D03*
Y8660D02*
D03*
Y9160D02*
D03*
Y9660D02*
D03*
Y10160D02*
D03*
Y10660D02*
D03*
Y11160D02*
D03*
Y11660D02*
D03*
Y12160D02*
D03*
Y12660D02*
D03*
X7800D02*
D03*
Y12160D02*
D03*
Y11660D02*
D03*
Y11160D02*
D03*
Y10660D02*
D03*
Y10160D02*
D03*
Y9660D02*
D03*
Y9160D02*
D03*
Y8660D02*
D03*
Y8160D02*
D03*
Y7660D02*
D03*
D21*
X11225Y10160D02*
D03*
D22*
X12100Y14925D02*
D03*
Y15925D02*
D03*
D23*
X57065Y11205D02*
D03*
X55365D02*
D03*
X57065Y7005D02*
D03*
X55365D02*
D03*
X57065Y9105D02*
D03*
X55365D02*
D03*
X57065Y13305D02*
D03*
X55365D02*
D03*
D24*
X21825Y9175D02*
D03*
X20825D02*
D03*
X20825Y13175D02*
D03*
X21825D02*
D03*
X19360Y4540D02*
D03*
X18360D02*
D03*
X8425Y5335D02*
D03*
X7425D02*
D03*
X8425Y4335D02*
D03*
X7425D02*
D03*
X21825Y12175D02*
D03*
X20825D02*
D03*
X21825Y11175D02*
D03*
X20825D02*
D03*
X21825Y10175D02*
D03*
X20825D02*
D03*
Y6350D02*
D03*
X21825D02*
D03*
D25*
X5350Y15425D02*
D03*
X7250D02*
D03*
D26*
X51565Y11205D02*
D03*
X53265D02*
D03*
X51565Y7005D02*
D03*
X53265D02*
D03*
X51565Y9105D02*
D03*
X53265D02*
D03*
X51565Y13305D02*
D03*
X53265D02*
D03*
D27*
X17950Y12435D02*
D03*
X17000D02*
D03*
X14335Y14810D02*
D03*
X13385D02*
D03*
X17950Y7510D02*
D03*
X17000D02*
D03*
D28*
X5575Y18848D02*
D03*
Y17451D02*
D03*
D29*
X25850Y9650D02*
D03*
Y11250D02*
D03*
D30*
X15000Y4500D02*
D03*
Y5450D02*
D03*
X6675Y7960D02*
D03*
Y7010D02*
D03*
X6625Y13335D02*
D03*
Y12385D02*
D03*
X11075Y4410D02*
D03*
Y5360D02*
D03*
X16000Y7450D02*
D03*
Y6500D02*
D03*
D31*
Y4475D02*
D03*
Y5475D02*
D03*
X8725Y15810D02*
D03*
Y14810D02*
D03*
X11100Y14910D02*
D03*
Y15910D02*
D03*
D32*
X45545Y17785D02*
Y20320D01*
Y17780D02*
Y17785D01*
X48085D02*
Y20320D01*
Y17780D02*
Y17785D01*
X37925Y17780D02*
Y20320D01*
X40465Y17780D02*
Y20320D01*
X37925Y0D02*
Y2540D01*
X40465Y0D02*
Y2540D01*
X53165Y0D02*
Y2540D01*
X50625Y0D02*
Y2540D01*
X45545Y0D02*
Y2540D01*
X43005Y0D02*
Y2540D01*
Y17780D02*
Y20320D01*
X48085Y0D02*
Y2540D01*
X25210Y17780D02*
Y20320D01*
Y0D02*
Y2540D01*
X27750Y0D02*
Y2540D01*
X30290Y0D02*
Y2540D01*
Y17780D02*
Y20320D01*
X27750Y17780D02*
Y20320D01*
X22670Y0D02*
Y2540D01*
Y17780D02*
Y20320D01*
X20130Y17780D02*
Y20320D01*
Y0D02*
Y2540D01*
X32830Y17780D02*
Y20320D01*
X35370Y17780D02*
Y20320D01*
X32830Y0D02*
Y2540D01*
X35370Y0D02*
Y2540D01*
X12510Y17780D02*
Y20320D01*
Y0D02*
Y2540D01*
X15050Y0D02*
Y2540D01*
X17590Y0D02*
Y2540D01*
Y17780D02*
Y20320D01*
X15050Y17780D02*
Y20320D01*
X9970Y0D02*
Y2540D01*
Y17780D02*
Y20320D01*
X7430Y17780D02*
Y20320D01*
Y0D02*
Y2540D01*
X55705Y17780D02*
Y20320D01*
Y0D02*
Y2540D01*
D33*
X15900Y7700D02*
Y7875D01*
X15651Y8124D02*
X15900Y7875D01*
X15651Y8124D02*
Y8500D01*
X15375Y7275D02*
Y7935D01*
X15150Y8160D02*
X15375Y7935D01*
X10500Y16239D02*
X11136Y16875D01*
X10500Y15571D02*
Y16239D01*
X10040Y15110D02*
X10500Y15571D01*
X9225Y14300D02*
X10035Y15110D01*
X9225Y13585D02*
Y14300D01*
X13020Y15925D02*
X13385Y15560D01*
X12100Y15925D02*
X13020D01*
X11115Y15910D02*
X12100Y14925D01*
X11100Y15910D02*
X11115D01*
X15150Y9160D02*
X15250Y9260D01*
X14970Y9160D02*
X15150D01*
X15250Y9260D02*
X15590D01*
X28740Y11410D02*
X29200D01*
X25210Y14940D02*
X28740Y11410D01*
X25210Y14940D02*
Y17780D01*
X42550Y15500D02*
X45800D01*
X37960Y10910D02*
X42550Y15500D01*
X32900Y10910D02*
X37960D01*
X45800Y15500D02*
X48085Y17785D01*
X40225Y6225D02*
X44405D01*
X37040Y9410D02*
X40225Y6225D01*
X32900Y9410D02*
X37040D01*
X46195Y6975D02*
X50625Y2545D01*
X41390Y6975D02*
X46195D01*
X38455Y9910D02*
X41390Y6975D01*
X44405Y6225D02*
X48085Y2545D01*
X32900Y9910D02*
X38455D01*
X10497Y4682D02*
Y5872D01*
X10200Y4385D02*
X10497Y4682D01*
X44035Y16275D02*
X45545Y17785D01*
X36745Y16600D02*
X37925Y17780D01*
X30800Y13210D02*
X35370Y17780D01*
X30800Y7110D02*
X35370Y2540D01*
X30800Y7110D02*
Y8310D01*
X41120Y15900D02*
X43005Y17785D01*
X16000Y4475D02*
X18295D01*
X12225Y6735D02*
X12263Y6697D01*
X11751Y5800D02*
Y6709D01*
X11725Y6735D02*
X11751Y6709D01*
X10725Y6100D02*
Y6735D01*
X10497Y5872D02*
X10725Y6100D01*
X19550Y6350D02*
X20825D01*
X20100Y11175D02*
X20825D01*
X21825D02*
X22550D01*
X21825Y12175D02*
X22550D01*
X15050Y16675D02*
X15600Y16125D01*
X15050Y16675D02*
Y17780D01*
X14650Y11660D02*
X15345D01*
X17950Y12435D02*
Y13225D01*
X15025Y6925D02*
X15375Y7275D01*
X14665Y9175D02*
X15005D01*
X14650Y9160D02*
X14665Y9175D01*
X15005D02*
X15021Y9160D01*
X16300Y9260D02*
X17000Y8560D01*
X15640Y9260D02*
X16300D01*
X16700Y6525D02*
X17000Y6825D01*
Y7510D01*
X16000Y6525D02*
X16700D01*
X15025Y5475D02*
X15025Y5475D01*
Y6925D01*
X16140Y10550D02*
X16675Y11085D01*
X14350Y4500D02*
X14350Y4500D01*
X15000D01*
X15025Y5475D02*
X16000D01*
X11200Y4385D02*
X11225Y4410D01*
X10450Y4385D02*
X11200D01*
X11605Y16875D02*
X12510Y17780D01*
X11136Y16875D02*
X11605D01*
X10385Y14810D02*
X10850D01*
X9725Y14150D02*
X10385Y14810D01*
X9725Y13585D02*
Y14150D01*
X14335Y13918D02*
Y14810D01*
X14002Y13585D02*
X14335Y13918D01*
X13725Y13585D02*
X14002D01*
X14650Y8160D02*
X15150D01*
X17000Y11410D02*
Y12435D01*
X16675Y11085D02*
X17000Y11410D01*
X17950Y11410D02*
Y12435D01*
Y11410D02*
X18275Y11085D01*
X17000Y7510D02*
Y8560D01*
X17950Y7510D02*
Y8560D01*
X18275Y8885D01*
X6600Y12160D02*
X7800D01*
X6600Y8160D02*
X7800D01*
X6600Y8160D02*
X6600Y8160D01*
X6400Y11160D02*
X6425Y11135D01*
X6925Y10660D02*
X7800D01*
X6675Y10410D02*
X6925Y10660D01*
X7275Y10160D02*
X7800D01*
X6725Y9610D02*
X7275Y10160D01*
X6400Y11160D02*
X7800D01*
X5900Y11935D02*
Y12985D01*
X7800Y8160D02*
X8825D01*
X9025Y7960D01*
X7800Y12160D02*
X8825D01*
X9025Y12360D01*
X3925Y8860D02*
X4475D01*
X3325Y6250D02*
X3750Y5825D01*
X28460Y9410D02*
X29200D01*
X28535Y8910D02*
X29200D01*
X38930Y16250D02*
X40465Y17785D01*
X30290Y12010D02*
Y17780D01*
X32900Y8910D02*
X35915D01*
X20325Y10175D02*
X20825D01*
X20100Y10400D02*
X20325Y10175D01*
X20100Y10400D02*
Y11175D01*
X21825Y6350D02*
X23800D01*
X21825Y10175D02*
X22550D01*
X21825Y9175D02*
X22550D01*
X22670Y17780D02*
X22675Y17775D01*
X17550Y14250D02*
X17925D01*
X19000Y13175D01*
X20825D01*
X21825D02*
X22550D01*
X30800Y12010D02*
Y13210D01*
X32300Y12010D02*
Y12800D01*
X35400Y15900D01*
X41120D01*
X31800Y12010D02*
Y12975D01*
X35075Y16250D01*
X38930D01*
X31300Y12010D02*
Y13025D01*
X34875Y16600D01*
X36745D01*
X30300Y2550D02*
Y8310D01*
X30290Y2540D02*
X30300Y2550D01*
X32300Y7425D02*
Y8310D01*
X31800Y7325D02*
Y8310D01*
X31300Y7175D02*
Y8310D01*
X23800Y6350D02*
X25850Y8400D01*
X26060Y9910D02*
X29200D01*
X27515Y10410D02*
X29200D01*
X22550Y13175D02*
X25600D01*
X27865Y10910D01*
X29200D01*
X25210Y5585D02*
X28535Y8910D01*
X25210Y2540D02*
Y5585D01*
X22670Y3620D02*
X28460Y9410D01*
X22670Y2500D02*
Y3620D01*
X27750Y2540D02*
Y3700D01*
X29800Y5750D01*
Y8310D01*
X22550Y13175D02*
Y14000D01*
X22675Y14125D01*
Y17775D01*
X32900Y11410D02*
X37210D01*
X42075Y16275D01*
X44035D01*
X27150Y10775D02*
X27515Y10410D01*
X24575Y11250D02*
X24575Y11250D01*
X25525D01*
X25850D01*
X25450Y11325D02*
X25525Y11250D01*
X25850Y10925D01*
X24575Y9650D02*
X25525D01*
X53265Y13305D02*
X55365D01*
X53265Y11205D02*
X55365D01*
X53265Y9105D02*
X55365D01*
X53265Y7005D02*
X55365D01*
X31300Y7175D02*
X34425Y4050D01*
X36415D01*
X37925Y2540D01*
X31800Y7325D02*
X34700Y4425D01*
X38585D01*
X40465Y2545D01*
X32300Y7425D02*
X34973Y4752D01*
X40798D01*
X43005Y2545D01*
X35915Y8910D02*
X39350Y5475D01*
X42615D01*
X45545Y2545D01*
X15345Y11660D02*
X15975Y12290D01*
X14650Y12160D02*
X15382D01*
X15600Y12378D01*
Y16125D01*
X17590Y17716D02*
Y17780D01*
X15975Y16101D02*
X17590Y17716D01*
X15975Y12290D02*
Y16101D01*
X15680Y10550D02*
X16140D01*
X14650Y10160D02*
X15290D01*
X15680Y10550D01*
X14650Y9660D02*
X15277D01*
X15567Y9950D01*
X17899Y9261D02*
X18275Y8885D01*
X14625Y8660D02*
X15140D01*
X15300Y8500D01*
X6175Y11660D02*
X7800D01*
X5900Y11935D02*
X6175Y11660D01*
X15567Y9950D02*
X17475D01*
X17899Y9526D01*
Y9261D02*
Y9526D01*
X15300Y8500D02*
X15651D01*
X19550Y9825D02*
X20200Y9175D01*
X20825D01*
X19550Y12175D02*
X20825D01*
X19550Y9825D02*
Y12175D01*
X48000Y10150D02*
X49150D01*
X45725Y12200D02*
X47200D01*
X32900Y10410D02*
X43540D01*
X48300Y5650D01*
X50055D01*
X53165Y2540D01*
D34*
X7800Y7325D02*
Y7660D01*
X7500Y7025D02*
X7800Y7325D01*
X6690Y7000D02*
X7500D01*
X11225Y6150D02*
Y6735D01*
X11075Y6000D02*
X11225Y6150D01*
X11075Y5360D02*
Y6000D01*
X6600Y13550D02*
X7250Y14200D01*
X8285Y6735D02*
X8725D01*
X7650Y6100D02*
X8285Y6735D01*
X6800Y6100D02*
X7650D01*
X8725Y6500D02*
Y6735D01*
X9200Y6710D02*
X9225Y6735D01*
X9200Y5825D02*
Y6710D01*
X6675Y7010D02*
X6690Y7025D01*
X8785Y14810D02*
X9775Y15800D01*
X8725Y14810D02*
X8785D01*
X8725D02*
X8725D01*
X7635Y15810D02*
X8725D01*
X7775Y8685D02*
X7800Y8660D01*
X7125Y8685D02*
X7775D01*
X7025Y8785D02*
X7125Y8685D01*
X6625Y8785D02*
X7025D01*
X8725Y13585D02*
Y14810D01*
X13225Y13585D02*
Y14650D01*
X14335Y14810D02*
Y15560D01*
X13385Y14810D02*
Y15560D01*
X29800Y12010D02*
Y12575D01*
X27750Y14625D02*
Y17780D01*
Y14625D02*
X29800Y12575D01*
X7281Y12660D02*
X7800D01*
X6600Y13341D02*
Y13550D01*
Y13341D02*
X7281Y12660D01*
X47200Y8100D02*
Y12200D01*
D35*
X7102Y17451D02*
X7430Y17780D01*
X18360Y3310D02*
Y4540D01*
X17590Y2540D02*
X18360Y3310D01*
X19360Y3310D02*
X20130Y2540D01*
X19360Y3310D02*
Y4540D01*
X4175Y15425D02*
X5250D01*
X3525Y14775D02*
X4175Y15425D01*
X3525Y14035D02*
Y14775D01*
X3850Y11460D02*
X4475D01*
X3525Y11785D02*
X3850Y11460D01*
X3525Y11785D02*
Y14035D01*
X3325Y8510D02*
X3675Y8860D01*
X3925D01*
X3325Y6250D02*
Y8510D01*
X5575Y17451D02*
X7102D01*
D36*
X7250Y14200D02*
Y15425D01*
X7430Y15605D01*
Y17780D01*
D37*
X57065Y7005D02*
Y9105D01*
Y11205D01*
Y13305D01*
D38*
X1803Y11310D02*
D03*
X1803Y9010D02*
D03*
D39*
X55705Y2540D02*
D03*
Y0D02*
D03*
X20130Y2540D02*
D03*
Y20320D02*
D03*
X32830D02*
D03*
Y2540D02*
D03*
X17590D02*
D03*
X7430Y20320D02*
D03*
X9970D02*
D03*
X55705Y17780D02*
D03*
Y20320D02*
D03*
D40*
X37925D02*
D03*
Y17780D02*
D03*
X40465Y20320D02*
D03*
Y17780D02*
D03*
X37925Y0D02*
D03*
Y2540D02*
D03*
X40465Y0D02*
D03*
Y2540D02*
D03*
X50625Y0D02*
D03*
Y2540D02*
D03*
X53165Y0D02*
D03*
Y2540D02*
D03*
X50625Y17780D02*
D03*
Y20320D02*
D03*
X53165Y17780D02*
D03*
Y20320D02*
D03*
X43005Y2540D02*
D03*
Y0D02*
D03*
X45545D02*
D03*
Y2540D02*
D03*
X43005Y17780D02*
D03*
Y20320D02*
D03*
X45545Y17780D02*
D03*
Y20320D02*
D03*
X48085D02*
D03*
Y17780D02*
D03*
Y2540D02*
D03*
Y0D02*
D03*
X25210Y20320D02*
D03*
Y17780D02*
D03*
Y2540D02*
D03*
Y0D02*
D03*
X27750D02*
D03*
Y2540D02*
D03*
X30290Y0D02*
D03*
Y2540D02*
D03*
X27750Y17780D02*
D03*
Y20320D02*
D03*
X30290D02*
D03*
Y17780D02*
D03*
X22670Y0D02*
D03*
Y2540D02*
D03*
Y17780D02*
D03*
Y20320D02*
D03*
X35370Y17780D02*
D03*
Y20320D02*
D03*
Y2540D02*
D03*
Y0D02*
D03*
X12510Y20320D02*
D03*
Y17780D02*
D03*
Y2540D02*
D03*
Y0D02*
D03*
X15050D02*
D03*
Y2540D02*
D03*
Y17780D02*
D03*
Y20320D02*
D03*
X17590D02*
D03*
Y17780D02*
D03*
X7430Y0D02*
D03*
Y2540D02*
D03*
X9970Y0D02*
D03*
Y2540D02*
D03*
D41*
X20130Y0D02*
D03*
Y17780D02*
D03*
X32830D02*
D03*
Y0D02*
D03*
X17590D02*
D03*
X7430Y17780D02*
D03*
X9970D02*
D03*
D42*
X4800Y7735D02*
D03*
Y12585D02*
D03*
D43*
X1800Y13810D02*
D03*
Y6510D02*
D03*
D44*
X2350Y17780D02*
D03*
Y2540D02*
D03*
D45*
X31600Y9610D02*
D03*
X30500D02*
D03*
X31600Y10710D02*
D03*
X30500D02*
D03*
X9025Y7960D02*
D03*
Y10160D02*
D03*
X10125Y9060D02*
D03*
X12325D02*
D03*
X13425Y10160D02*
D03*
X9025Y12360D02*
D03*
X10125Y11260D02*
D03*
X12325D02*
D03*
X13425Y7960D02*
D03*
Y12360D02*
D03*
X39195Y3025D02*
D03*
X40425Y7100D02*
D03*
X42150Y11375D02*
D03*
X50465Y8025D02*
D03*
X31550Y4550D02*
D03*
X6800Y6100D02*
D03*
X23935Y3100D02*
D03*
X21375Y15300D02*
D03*
X55965Y5400D02*
D03*
X56115Y14575D02*
D03*
X49375Y15025D02*
D03*
X46950Y13875D02*
D03*
X27975Y13350D02*
D03*
X24300Y14275D02*
D03*
X23425Y7175D02*
D03*
X27325Y5050D02*
D03*
X28400Y7000D02*
D03*
X37900Y5500D02*
D03*
X36450Y6900D02*
D03*
X36100Y13325D02*
D03*
X19550Y6350D02*
D03*
X20100Y11175D02*
D03*
X22550D02*
D03*
Y12175D02*
D03*
X19550D02*
D03*
X17950Y13225D02*
D03*
X16700Y6525D02*
D03*
X15640Y9260D02*
D03*
X14350Y4500D02*
D03*
X9200Y5825D02*
D03*
X7475Y7000D02*
D03*
X11776Y5800D02*
D03*
X15025Y6925D02*
D03*
X7250Y14200D02*
D03*
X14675Y13585D02*
D03*
X4900Y13797D02*
D03*
X23925Y17185D02*
D03*
X26475D02*
D03*
X29025D02*
D03*
X20800Y4625D02*
D03*
X26475Y3100D02*
D03*
X29025Y3050D02*
D03*
X10200Y4385D02*
D03*
X6675Y8785D02*
D03*
X14335Y15560D02*
D03*
X13385D02*
D03*
X6675Y10410D02*
D03*
X6725Y9610D02*
D03*
X5900Y12985D02*
D03*
X11225Y12360D02*
D03*
Y10160D02*
D03*
Y7960D02*
D03*
X3325Y8510D02*
D03*
X3525Y14035D02*
D03*
X3775Y5825D02*
D03*
X44260Y3050D02*
D03*
X41735Y3025D02*
D03*
X36635D02*
D03*
X46810Y3050D02*
D03*
X44285Y17310D02*
D03*
X41735D02*
D03*
X39185Y17285D02*
D03*
X36635Y17285D02*
D03*
X27625Y12525D02*
D03*
X28925Y13450D02*
D03*
X45250Y16225D02*
D03*
X47875Y16125D02*
D03*
X49355Y3050D02*
D03*
X57065Y10155D02*
D03*
X22550Y10175D02*
D03*
Y9175D02*
D03*
X37675Y7150D02*
D03*
X37825Y8625D02*
D03*
X43650Y13750D02*
D03*
X42075Y7975D02*
D03*
X26825Y8600D02*
D03*
X34250Y7675D02*
D03*
X22550Y13175D02*
D03*
X17550Y14250D02*
D03*
X30290Y13650D02*
D03*
X25850Y8400D02*
D03*
X19850Y7900D02*
D03*
X27150Y10775D02*
D03*
X24575Y11250D02*
D03*
Y9650D02*
D03*
X51565Y11205D02*
D03*
Y9105D02*
D03*
Y7005D02*
D03*
Y13305D02*
D03*
X16320Y17209D02*
D03*
X13776Y17201D02*
D03*
X15651Y8500D02*
D03*
X6400Y11110D02*
D03*
X45725Y12200D02*
D03*
X48000Y10150D02*
D03*
M02*
